"Whale,Circles of Fires"
"Lion,Circles of Fires"
"Eagle,Circles of Fires"
"Cat,Dancing Animals"
"Snake,Dancing Animals"
"Parrot,Dancing Animals"
"Hamster,Dancing Animals"
"Hamster,Counting Masters"
"Whale,Counting Masters"
"Parrot,Counting Masters"
"Cat,Passionate Coders"
"Hamster,Passionate Coders"
"Snake,Passionate Coders"
